R4_MDC/1_SourceCode/vivado2018.3_prj/SDF_FFT_1024.sim/sim_1/behav/modelsim/R4_MDC.vcd
$date
	Thu Jul 13 09:49:21 2023
$end
$version
	ModelSim Version 10.4
$end
$timescale
	1ps
$end

$scope module tb_mdc_fft_1024_top $end
$var parameter 32 ! DATA_NUM $end
$var parameter 32 " DATA_WIDTH $end
$var parameter 32 # TWIDDLE_WIDTH $end
$var parameter 32 $ TWIDDLE_SCALE_SHIFT $end
$var parameter 0 % CYC_TIME $end
$var reg 1 & clk $end
$var reg 1 ' rstn $end
$var reg 1 ( data_i_en $end
$var reg 64 ) data_i_0 [63:0] $end
$var reg 64 * data_i_1 [63:0] $end
$var reg 64 + data_i_2 [63:0] $end
$var reg 64 , data_i_3 [63:0] $end
$var wire 1 - data_o_en $end
$var wire 1 . data_o_0 [63] $end
$var wire 1 / data_o_0 [62] $end
$var wire 1 0 data_o_0 [61] $end
$var wire 1 1 data_o_0 [60] $end
$var wire 1 2 data_o_0 [59] $end
$var wire 1 3 data_o_0 [58] $end
$var wire 1 4 data_o_0 [57] $end
$var wire 1 5 data_o_0 [56] $end
$var wire 1 6 data_o_0 [55] $end
$var wire 1 7 data_o_0 [54] $end
$var wire 1 8 data_o_0 [53] $end
$var wire 1 9 data_o_0 [52] $end
$var wire 1 : data_o_0 [51] $end
$var wire 1 ; data_o_0 [50] $end
$var wire 1 < data_o_0 [49] $end
$var wire 1 = data_o_0 [48] $end
$var wire 1 > data_o_0 [47] $end
$var wire 1 ? data_o_0 [46] $end
$var wire 1 @ data_o_0 [45] $end
$var wire 1 A data_o_0 [44] $end
$var wire 1 B data_o_0 [43] $end
$var wire 1 C data_o_0 [42] $end
$var wire 1 D data_o_0 [41] $end
$var wire 1 E data_o_0 [40] $end
$var wire 1 F data_o_0 [39] $end
$var wire 1 G data_o_0 [38] $end
$var wire 1 H data_o_0 [37] $end
$var wire 1 I data_o_0 [36] $end
$var wire 1 J data_o_0 [35] $end
$var wire 1 K data_o_0 [34] $end
$var wire 1 L data_o_0 [33] $end
$var wire 1 M data_o_0 [32] $end
$var wire 1 N data_o_0 [31] $end
$var wire 1 O data_o_0 [30] $end
$var wire 1 P data_o_0 [29] $end
$var wire 1 Q data_o_0 [28] $end
$var wire 1 R data_o_0 [27] $end
$var wire 1 S data_o_0 [26] $end
$var wire 1 T data_o_0 [25] $end
$var wire 1 U data_o_0 [24] $end
$var wire 1 V data_o_0 [23] $end
$var wire 1 W data_o_0 [22] $end
$var wire 1 X data_o_0 [21] $end
$var wire 1 Y data_o_0 [20] $end
$var wire 1 Z data_o_0 [19] $end
$var wire 1 [ data_o_0 [18] $end
$var wire 1 \ data_o_0 [17] $end
$var wire 1 ] data_o_0 [16] $end
$var wire 1 ^ data_o_0 [15] $end
$var wire 1 _ data_o_0 [14] $end
$var wire 1 ` data_o_0 [13] $end
$var wire 1 a data_o_0 [12] $end
$var wire 1 b data_o_0 [11] $end
$var wire 1 c data_o_0 [10] $end
$var wire 1 d data_o_0 [9] $end
$var wire 1 e data_o_0 [8] $end
$var wire 1 f data_o_0 [7] $end
$var wire 1 g data_o_0 [6] $end
$var wire 1 h data_o_0 [5] $end
$var wire 1 i data_o_0 [4] $end
$var wire 1 j data_o_0 [3] $end
$var wire 1 k data_o_0 [2] $end
$var wire 1 l data_o_0 [1] $end
$var wire 1 m data_o_0 [0] $end
$var wire 1 n data_o_1 [63] $end
$var wire 1 o data_o_1 [62] $end
$var wire 1 p data_o_1 [61] $end
$var wire 1 q data_o_1 [60] $end
$var wire 1 r data_o_1 [59] $end
$var wire 1 s data_o_1 [58] $end
$var wire 1 t data_o_1 [57] $end
$var wire 1 u data_o_1 [56] $end
$var wire 1 v data_o_1 [55] $end
$var wire 1 w data_o_1 [54] $end
$var wire 1 x data_o_1 [53] $end
$var wire 1 y data_o_1 [52] $end
$var wire 1 z data_o_1 [51] $end
$var wire 1 { data_o_1 [50] $end
$var wire 1 | data_o_1 [49] $end
$var wire 1 } data_o_1 [48] $end
$var wire 1 ~ data_o_1 [47] $end
$var wire 1 !! data_o_1 [46] $end
$var wire 1 "! data_o_1 [45] $end
$var wire 1 #! data_o_1 [44] $end
$var wire 1 $! data_o_1 [43] $end
$var wire 1 %! data_o_1 [42] $end
$var wire 1 &! data_o_1 [41] $end
$var wire 1 '! data_o_1 [40] $end
$var wire 1 (! data_o_1 [39] $end
$var wire 1 )! data_o_1 [38] $end
$var wire 1 *! data_o_1 [37] $end
$var wire 1 +! data_o_1 [36] $end
$var wire 1 ,! data_o_1 [35] $end
$var wire 1 -! data_o_1 [34] $end
$var wire 1 .! data_o_1 [33] $end
$var wire 1 /! data_o_1 [32] $end
$var wire 1 0! data_o_1 [31] $end
$var wire 1 1! data_o_1 [30] $end
$var wire 1 2! data_o_1 [29] $end
$var wire 1 3! data_o_1 [28] $end
$var wire 1 4! data_o_1 [27] $end
$var wire 1 5! data_o_1 [26] $end
$var wire 1 6! data_o_1 [25] $end
$var wire 1 7! data_o_1 [24] $end
$var wire 1 8! data_o_1 [23] $end
$var wire 1 9! data_o_1 [22] $end
$var wire 1 :! data_o_1 [21] $end
$var wire 1 ;! data_o_1 [20] $end
$var wire 1 <! data_o_1 [19] $end
$var wire 1 =! data_o_1 [18] $end
$var wire 1 >! data_o_1 [17] $end
$var wire 1 ?! data_o_1 [16] $end
$var wire 1 @! data_o_1 [15] $end
$var wire 1 A! data_o_1 [14] $end
$var wire 1 B! data_o_1 [13] $end
$var wire 1 C! data_o_1 [12] $end
$var wire 1 D! data_o_1 [11] $end
$var wire 1 E! data_o_1 [10] $end
$var wire 1 F! data_o_1 [9] $end
$var wire 1 G! data_o_1 [8] $end
$var wire 1 H! data_o_1 [7] $end
$var wire 1 I! data_o_1 [6] $end
$var wire 1 J! data_o_1 [5] $end
$var wire 1 K! data_o_1 [4] $end
$var wire 1 L! data_o_1 [3] $end
$var wire 1 M! data_o_1 [2] $end
$var wire 1 N! data_o_1 [1] $end
$var wire 1 O! data_o_1 [0] $end
$var wire 1 P! data_o_2 [63] $end
$var wire 1 Q! data_o_2 [62] $end
$var wire 1 R! data_o_2 [61] $end
$var wire 1 S! data_o_2 [60] $end
$var wire 1 T! data_o_2 [59] $end
$var wire 1 U! data_o_2 [58] $end
$var wire 1 V! data_o_2 [57] $end
$var wire 1 W! data_o_2 [56] $end
$var wire 1 X! data_o_2 [55] $end
$var wire 1 Y! data_o_2 [54] $end
$var wire 1 Z! data_o_2 [53] $end
$var wire 1 [! data_o_2 [52] $end
$var wire 1 \! data_o_2 [51] $end
$var wire 1 ]! data_o_2 [50] $end
$var wire 1 ^! data_o_2 [49] $end
$var wire 1 _! data_o_2 [48] $end
$var wire 1 `! data_o_2 [47] $end
$var wire 1 a! data_o_2 [46] $end
$var wire 1 b! data_o_2 [45] $end
$var wire 1 c! data_o_2 [44] $end
$var wire 1 d! data_o_2 [43] $end
$var wire 1 e! data_o_2 [42] $end
$var wire 1 f! data_o_2 [41] $end
$var wire 1 g! data_o_2 [40] $end
$var wire 1 h! data_o_2 [39] $end
$var wire 1 i! data_o_2 [38] $end
$var wire 1 j! data_o_2 [37] $end
$var wire 1 k! data_o_2 [36] $end
$var wire 1 l! data_o_2 [35] $end
$var wire 1 m! data_o_2 [34] $end
$var wire 1 n! data_o_2 [33] $end
$var wire 1 o! data_o_2 [32] $end
$var wire 1 p! data_o_2 [31] $end
$var wire 1 q! data_o_2 [30] $end
$var wire 1 r! data_o_2 [29] $end
$var wire 1 s! data_o_2 [28] $end
$var wire 1 t! data_o_2 [27] $end
$var wire 1 u! data_o_2 [26] $end
$var wire 1 v! data_o_2 [25] $end
$var wire 1 w! data_o_2 [24] $end
$var wire 1 x! data_o_2 [23] $end
$var wire 1 y! data_o_2 [22] $end
$var wire 1 z! data_o_2 [21] $end
$var wire 1 {! data_o_2 [20] $end
$var wire 1 |! data_o_2 [19] $end
$var wire 1 }! data_o_2 [18] $end
$var wire 1 ~! data_o_2 [17] $end
$var wire 1 !" data_o_2 [16] $end
$var wire 1 "" data_o_2 [15] $end
$var wire 1 #" data_o_2 [14] $end
$var wire 1 $" data_o_2 [13] $end
$var wire 1 %" data_o_2 [12] $end
$var wire 1 &" data_o_2 [11] $end
$var wire 1 '" data_o_2 [10] $end
$var wire 1 (" data_o_2 [9] $end
$var wire 1 )" data_o_2 [8] $end
$var wire 1 *" data_o_2 [7] $end
$var wire 1 +" data_o_2 [6] $end
$var wire 1 ," data_o_2 [5] $end
$var wire 1 -" data_o_2 [4] $end
$var wire 1 ." data_o_2 [3] $end
$var wire 1 /" data_o_2 [2] $end
$var wire 1 0" data_o_2 [1] $end
$var wire 1 1" data_o_2 [0] $end
$var wire 1 2" data_o_3 [63] $end
$var wire 1 3" data_o_3 [62] $end
$var wire 1 4" data_o_3 [61] $end
$var wire 1 5" data_o_3 [60] $end
$var wire 1 6" data_o_3 [59] $end
$var wire 1 7" data_o_3 [58] $end
$var wire 1 8" data_o_3 [57] $end
$var wire 1 9" data_o_3 [56] $end
$var wire 1 :" data_o_3 [55] $end
$var wire 1 ;" data_o_3 [54] $end
$var wire 1 <" data_o_3 [53] $end
$var wire 1 =" data_o_3 [52] $end
$var wire 1 >" data_o_3 [51] $end
$var wire 1 ?" data_o_3 [50] $end
$var wire 1 @" data_o_3 [49] $end
$var wire 1 A" data_o_3 [48] $end
$var wire 1 B" data_o_3 [47] $end
$var wire 1 C" data_o_3 [46] $end
$var wire 1 D" data_o_3 [45] $end
$var wire 1 E" data_o_3 [44] $end
$var wire 1 F" data_o_3 [43] $end
$var wire 1 G" data_o_3 [42] $end
$var wire 1 H" data_o_3 [41] $end
$var wire 1 I" data_o_3 [40] $end
$var wire 1 J" data_o_3 [39] $end
$var wire 1 K" data_o_3 [38] $end
$var wire 1 L" data_o_3 [37] $end
$var wire 1 M" data_o_3 [36] $end
$var wire 1 N" data_o_3 [35] $end
$var wire 1 O" data_o_3 [34] $end
$var wire 1 P" data_o_3 [33] $end
$var wire 1 Q" data_o_3 [32] $end
$var wire 1 R" data_o_3 [31] $end
$var wire 1 S" data_o_3 [30] $end
$var wire 1 T" data_o_3 [29] $end
$var wire 1 U" data_o_3 [28] $end
$var wire 1 V" data_o_3 [27] $end
$var wire 1 W" data_o_3 [26] $end
$var wire 1 X" data_o_3 [25] $end
$var wire 1 Y" data_o_3 [24] $end
$var wire 1 Z" data_o_3 [23] $end
$var wire 1 [" data_o_3 [22] $end
$var wire 1 \" data_o_3 [21] $end
$var wire 1 ]" data_o_3 [20] $end
$var wire 1 ^" data_o_3 [19] $end
$var wire 1 _" data_o_3 [18] $end
$var wire 1 `" data_o_3 [17] $end
$var wire 1 a" data_o_3 [16] $end
$var wire 1 b" data_o_3 [15] $end
$var wire 1 c" data_o_3 [14] $end
$var wire 1 d" data_o_3 [13] $end
$var wire 1 e" data_o_3 [12] $end
$var wire 1 f" data_o_3 [11] $end
$var wire 1 g" data_o_3 [10] $end
$var wire 1 h" data_o_3 [9] $end
$var wire 1 i" data_o_3 [8] $end
$var wire 1 j" data_o_3 [7] $end
$var wire 1 k" data_o_3 [6] $end
$var wire 1 l" data_o_3 [5] $end
$var wire 1 m" data_o_3 [4] $end
$var wire 1 n" data_o_3 [3] $end
$var wire 1 o" data_o_3 [2] $end
$var wire 1 p" data_o_3 [1] $end
$var wire 1 q" data_o_3 [0] $end
$var integer 32 r" i $end
$var integer 32 s" j $end
$var integer 32 t" sub_real $end
$var integer 32 u" sub_imag $end
$var integer 32 v" k $end
$var integer 32 w" fo_real $end
$var integer 32 x" fo_imag $end
$var reg 32 y" fft_o_real [31:0] $end
$var reg 32 z" fft_o_imag [31:0] $end
$upscope $end
$enddefinitions $end
#0
$dumpvars
0&
0'
0(
bx )
bx *
bx +
bx ,
bx y"
bx z"
b10000000000 !
b1000000 "
b1000000 #
b10000 $
r20 %
bx r"
bx s"
bx t"
bx u"
bx v"
b10000000000000000000000000000011 w"
b10000000000000000000000000000100 x"
x-
xm
xl
xk
xj
xi
xh
xg
xf
xe
xd
xc
xb
xa
x`
x_
x^
x]
x\
x[
xZ
xY
xX
xW
xV
xU
xT
xS
xR
xQ
xP
xO
xN
xM
xL
xK
xJ
xI
xH
xG
xF
xE
xD
xC
xB
xA
x@
x?
x>
x=
x<
x;
x:
x9
x8
x7
x6
x5
x4
x3
x2
x1
x0
x/
x.
xO!
xN!
xM!
xL!
xK!
xJ!
xI!
xH!
xG!
xF!
xE!
xD!
xC!
xB!
xA!
x@!
x?!
x>!
x=!
x<!
x;!
x:!
x9!
x8!
x7!
x6!
x5!
x4!
x3!
x2!
x1!
x0!
x/!
x.!
x-!
x,!
x+!
x*!
x)!
x(!
x'!
x&!
x%!
x$!
x#!
x"!
x!!
x~
x}
x|
x{
xz
xy
xx
xw
xv
xu
xt
xs
xr
xq
xp
xo
xn
x1"
x0"
x/"
x."
x-"
x,"
x+"
x*"
x)"
x("
x'"
x&"
x%"
x$"
x#"
x""
x!"
x~!
x}!
x|!
x{!
xz!
xy!
xx!
xw!
xv!
xu!
xt!
xs!
xr!
xq!
xp!
xo!
xn!
xm!
xl!
xk!
xj!
xi!
xh!
xg!
xf!
xe!
xd!
xc!
xb!
xa!
x`!
x_!
x^!
x]!
x\!
x[!
xZ!
xY!
xX!
xW!
xV!
xU!
xT!
xS!
xR!
xQ!
xP!
xq"
xp"
xo"
xn"
xm"
xl"
xk"
xj"
xi"
xh"
xg"
xf"
xe"
xd"
xc"
xb"
xa"
x`"
x_"
x^"
x]"
x\"
x["
xZ"
xY"
xX"
xW"
xV"
xU"
xT"
xS"
xR"
xQ"
xP"
xO"
xN"
xM"
xL"
xK"
xJ"
xI"
xH"
xG"
xF"
xE"
xD"
xC"
xB"
xA"
x@"
x?"
x>"
x="
x<"
x;"
x:"
x9"
x8"
x7"
x6"
x5"
x4"
x3"
x2"
$end
#10000
1&
1'
#20000
0&
#30000
1&
b0 r"
#40000
0&
#50000
1&
b1111101000000000000000000000000000000000000 )
b100110101000000000000000000000000000000000 *
b1111111111111111111110011010111000000000000000000000000000000000 +
b1111111111111111111110011010111000000000000000000000000000000000 ,
1(
b1 r"
#60000
0&
#70000
1&
b0 )
b0 *
b0 +
b0 ,
b10 r"
#80000
0&
#90000
1&
b1111111111111111111110011010111000000000000000000000000000000000 )
b1111111111111111111110011010111000000000000000000000000000000000 *
b100110101000000000000000000000000000000000 +
b1111101000000000000000000000000000000000000 ,
b11 r"
#100000
0&
#110000
1&
b0 )
b0 *
b0 +
b0 ,
b100 r"
#120000
0&
#130000
1&
b100110101000000000000000000000000000000000 )
b1111101000000000000000000000000000000000000 *
b100110101000000000000000000000000000000000 +
b1111111111111111111110011010111000000000000000000000000000000000 ,
b101 r"
#140000
0&
#150000
1&
b0 )
b0 *
b0 +
b0 ,
b110 r"
#160000
0&
#170000
1&
b100110101000000000000000000000000000000000 )
b1111111111111111111110011010111000000000000000000000000000000000 *
b1111111111111111111110011010111000000000000000000000000000000000 +
b100110101000000000000000000000000000000000 ,
b111 r"
#180000
0&
#190000
1&
b0 )
b0 *
b0 +
b0 ,
b1000 r"
#200000
0&
#210000
1&
b1111111111111111111110011010111000000000000000000000000000000000 )
b100110101000000000000000000000000000000000 *
b1111101000000000000000000000000000000000000 +
b100110101000000000000000000000000000000000 ,
b1001 r"
#220000
0&
#230000
1&
b0 )
b0 *
b0 +
b0 ,
b1010 r"
#240000
0&
#250000
1&
b1111101000000000000000000000000000000000000 )
b100110101000000000000000000000000000000000 *
b1111111111111111111110011010111000000000000000000000000000000000 +
b1111111111111111111110011010111000000000000000000000000000000000 ,
b1011 r"
#260000
0&
#270000
1&
b0 )
b0 *
b0 +
b0 ,
b1100 r"
#280000
0&
#290000
1&
b1111111111111111111110011010111000000000000000000000000000000000 )
b1111111111111111111110011010111000000000000000000000000000000000 *
b100110101000000000000000000000000000000000 +
b1111101000000000000000000000000000000000000 ,
b1101 r"
#300000
0&
#310000
1&
b0 )
b0 *
b0 +
b0 ,
b1110 r"
#320000
0&
#330000
1&
b100110101000000000000000000000000000000000 )
b1111101000000000000000000000000000000000000 *
b100110101000000000000000000000000000000000 +
b1111111111111111111110011010111000000000000000000000000000000000 ,
b1111 r"
#340000
0&
#350000
1&
b0 )
b0 *
b0 +
b0 ,
b10000 r"
#360000
0&
#370000
1&
b100110101000000000000000000000000000000000 )
b1111111111111111111110011010111000000000000000000000000000000000 *
b1111111111111111111110011010111000000000000000000000000000000000 +
b100110101000000000000000000000000000000000 ,
b10001 r"
#380000
0&
#390000
1&
b0 )
b0 *
b0 +
b0 ,
b10010 r"
#400000
0&
#410000
1&
b1111111111111111111110011010111000000000000000000000000000000000 )
b100110101000000000000000000000000000000000 *
b1111101000000000000000000000000000000000000 +
b100110101000000000000000000000000000000000 ,
b10011 r"
#420000
0&
#430000
1&
b0 )
b0 *
b0 +
b0 ,
b10100 r"
#440000
0&
#450000
1&
b1111101000000000000000000000000000000000000 )
b100110101000000000000000000000000000000000 *
b1111111111111111111110011010111000000000000000000000000000000000 +
b1111111111111111111110011010111000000000000000000000000000000000 ,
b10101 r"
#460000
0&
#470000
1&
b0 )
b0 *
b0 +
b0 ,
b10110 r"
#480000
0&
#490000
1&
b1111111111111111111110011010111000000000000000000000000000000000 )
b1111111111111111111110011010111000000000000000000000000000000000 *
b100110101000000000000000000000000000000000 +
b1111101000000000000000000000000000000000000 ,
b10111 r"
#500000
0&
#510000
1&
b0 )
b0 *
b0 +
b0 ,
b11000 r"
#520000
0&
#530000
1&
b100110101000000000000000000000000000000000 )
b1111101000000000000000000000000000000000000 *
b100110101000000000000000000000000000000000 +
b1111111111111111111110011010111000000000000000000000000000000000 ,
b11001 r"
#540000
0&
#550000
1&
b0 )
b0 *
b0 +
b0 ,
b11010 r"
#560000
0&
#570000
1&
b100110101000000000000000000000000000000000 )
b1111111111111111111110011010111000000000000000000000000000000000 *
b1111111111111111111110011010111000000000000000000000000000000000 +
b100110101000000000000000000000000000000000 ,
b11011 r"
#580000
0&
#590000
1&
b0 )
b0 *
b0 +
b0 ,
b11100 r"
#600000
0&
#610000
1&
b1111111111111111111110011010111000000000000000000000000000000000 )
b100110101000000000000000000000000000000000 *
b1111101000000000000000000000000000000000000 +
b100110101000000000000000000000000000000000 ,
b11101 r"
#620000
0&
#630000
1&
b0 )
b0 *
b0 +
b0 ,
b11110 r"
#640000
0&
#650000
1&
b1111101000000000000000000000000000000000000 )
b100110101000000000000000000000000000000000 *
b1111111111111111111110011010111000000000000000000000000000000000 +
b1111111111111111111110011010111000000000000000000000000000000000 ,
b11111 r"
#660000
0&
#670000
1&
b0 )
b0 *
b0 +
b0 ,
b100000 r"
#680000
0&
#690000
1&
b1111111111111111111110011010111000000000000000000000000000000000 )
b1111111111111111111110011010111000000000000000000000000000000000 *
b100110101000000000000000000000000000000000 +
b1111101000000000000000000000000000000000000 ,
b100001 r"
#700000
0&
#710000
1&
b0 )
b0 *
b0 +
b0 ,
b100010 r"
#720000
0&
#730000
1&
b100110101000000000000000000000000000000000 )
b1111101000000000000000000000000000000000000 *
b100110101000000000000000000000000000000000 +
b1111111111111111111110011010111000000000000000000000000000000000 ,
b100011 r"
#740000
0&
#750000
1&
b0 )
b0 *
b0 +
b0 ,
b100100 r"
#760000
0&
#770000
1&
b100110101000000000000000000000000000000000 )
b1111111111111111111110011010111000000000000000000000000000000000 *
b1111111111111111111110011010111000000000000000000000000000000000 +
b100110101000000000000000000000000000000000 ,
b100101 r"
#780000
0&
#790000
1&
b0 )
b0 *
b0 +
b0 ,
b100110 r"
#800000
0&
#810000
1&
b1111111111111111111110011010111000000000000000000000000000000000 )
b100110101000000000000000000000000000000000 *
b1111101000000000000000000000000000000000000 +
b100110101000000000000000000000000000000000 ,
b100111 r"
#820000
0&
#830000
1&
b0 )
b0 *
b0 +
b0 ,
b101000 r"
#840000
0&
#850000
1&
b1111101000000000000000000000000000000000000 )
b100110101000000000000000000000000000000000 *
b1111111111111111111110011010111000000000000000000000000000000000 +
b1111111111111111111110011010111000000000000000000000000000000000 ,
b101001 r"
#860000
0&
#870000
1&
b0 )
b0 *
b0 +
b0 ,
b101010 r"
#880000
0&
#890000
1&
b1111111111111111111110011010111000000000000000000000000000000000 )
b1111111111111111111110011010111000000000000000000000000000000000 *
b100110101000000000000000000000000000000000 +
b1111101000000000000000000000000000000000000 ,
b101011 r"
#900000
0&
#910000
1&
b0 )
b0 *
b0 +
b0 ,
b101100 r"
#920000
0&
#930000
1&
b100110101000000000000000000000000000000000 )
b1111101000000000000000000000000000000000000 *
b100110101000000000000000000000000000000000 +
b1111111111111111111110011010111000000000000000000000000000000000 ,
b101101 r"
#940000
0&
#950000
1&
b0 )
b0 *
b0 +
b0 ,
b101110 r"
#960000
0&
#970000
1&
b100110101000000000000000000000000000000000 )
b1111111111111111111110011010111000000000000000000000000000000000 *
b1111111111111111111110011010111000000000000000000000000000000000 +
b100110101000000000000000000000000000000000 ,
b101111 r"
#980000
0&
#990000
1&
b0 )
b0 *
b0 +
b0 ,
b110000 r"
#1000000
0&
#1010000
1&
b1111111111111111111110011010111000000000000000000000000000000000 )
b100110101000000000000000000000000000000000 *
b1111101000000000000000000000000000000000000 +
b100110101000000000000000000000000000000000 ,
b110001 r"
#1020000
0&
#1030000
1&
b0 )
b0 *
b0 +
b0 ,
b110010 r"
#1040000
0&
#1050000
1&
b1111101000000000000000000000000000000000000 )
b100110101000000000000000000000000000000000 *
b1111111111111111111110011010111000000000000000000000000000000000 +
b1111111111111111111110011010111000000000000000000000000000000000 ,
b110011 r"
#1060000
0&
#1070000
1&
b0 )
b0 *
b0 +
b0 ,
b110100 r"
#1080000
0&
#1090000
1&
b1111111111111111111110011010111000000000000000000000000000000000 )
b1111111111111111111110011010111000000000000000000000000000000000 *
b100110101000000000000000000000000000000000 +
b1111101000000000000000000000000000000000000 ,
b110101 r"
#1100000
0&
#1110000
1&
b0 )
b0 *
b0 +
b0 ,
b110110 r"
#1120000
0&
#1130000
1&
b100110101000000000000000000000000000000000 )
b1111101000000000000000000000000000000000000 *
b100110101000000000000000000000000000000000 +
b1111111111111111111110011010111000000000000000000000000000000000 ,
b110111 r"
#1140000
0&
#1150000
1&
b0 )
b0 *
b0 +
b0 ,
b111000 r"
#1160000
0&
#1170000
1&
b100110101000000000000000000000000000000000 )
b1111111111111111111110011010111000000000000000000000000000000000 *
b1111111111111111111110011010111000000000000000000000000000000000 +
b100110101000000000000000000000000000000000 ,
b111001 r"
#1180000
0&
#1190000
1&
b0 )
b0 *
b0 +
b0 ,
b111010 r"
#1200000
0&
#1210000
1&
b1111111111111111111110011010111000000000000000000000000000000000 )
b100110101000000000000000000000000000000000 *
b1111101000000000000000000000000000000000000 +
b100110101000000000000000000000000000000000 ,
b111011 r"
#1220000
0&
#1230000
1&
b0 )
b0 *
b0 +
b0 ,
b111100 r"
#1240000
0&
#1250000
1&
b1111101000000000000000000000000000000000000 )
b100110101000000000000000000000000000000000 *
b1111111111111111111110011010111000000000000000000000000000000000 +
b1111111111111111111110011010111000000000000000000000000000000000 ,
b111101 r"
#1260000
0&
#1270000
1&
b0 )
b0 *
b0 +
b0 ,
b111110 r"
#1280000
0&
#1290000
1&
b1111111111111111111110011010111000000000000000000000000000000000 )
b1111111111111111111110011010111000000000000000000000000000000000 *
b100110101000000000000000000000000000000000 +
b1111101000000000000000000000000000000000000 ,
b111111 r"
#1300000
0&
#1310000
1&
b0 )
b0 *
b0 +
b0 ,
b1000000 r"
#1320000
0&
#1330000
1&
b100110101000000000000000000000000000000000 )
b1111101000000000000000000000000000000000000 *
b100110101000000000000000000000000000000000 +
b1111111111111111111110011010111000000000000000000000000000000000 ,
b1000001 r"
#1340000
0&
#1350000
1&
b0 )
b0 *
b0 +
b0 ,
b1000010 r"
#1360000
0&
#1370000
1&
b100110101000000000000000000000000000000000 )
b1111111111111111111110011010111000000000000000000000000000000000 *
b1111111111111111111110011010111000000000000000000000000000000000 +
b100110101000000000000000000000000000000000 ,
b1000011 r"
#1380000
0&
#1390000
1&
b0 )
b0 *
b0 +
b0 ,
b1000100 r"
#1400000
0&
#1410000
1&
b1111111111111111111110011010111000000000000000000000000000000000 )
b100110101000000000000000000000000000000000 *
b1111101000000000000000000000000000000000000 +
b100110101000000000000000000000000000000000 ,
b1000101 r"
#1420000
0&
#1430000
1&
b0 )
b0 *
b0 +
b0 ,
b1000110 r"
#1440000
0&
#1450000
1&
b1111101000000000000000000000000000000000000 )
b100110101000000000000000000000000000000000 *
b1111111111111111111110011010111000000000000000000000000000000000 +
b1111111111111111111110011010111000000000000000000000000000000000 ,
b1000111 r"
#1460000
0&
#1470000
1&
b0 )
b0 *
b0 +
b0 ,
b1001000 r"
#1480000
0&
#1490000
1&
b1111111111111111111110011010111000000000000000000000000000000000 )
b1111111111111111111110011010111000000000000000000000000000000000 *
b100110101000000000000000000000000000000000 +
b1111101000000000000000000000000000000000000 ,
b1001001 r"
#1500000
0&
#1510000
1&
b0 )
b0 *
b0 +
b0 ,
b1001010 r"
#1520000
0&
#1530000
1&
b100110101000000000000000000000000000000000 )
b1111101000000000000000000000000000000000000 *
b100110101000000000000000000000000000000000 +
b1111111111111111111110011010111000000000000000000000000000000000 ,
b1001011 r"
#1540000
0&
#1550000
1&
b0 )
b0 *
b0 +
b0 ,
b1001100 r"
#1560000
0&
#1570000
1&
b100110101000000000000000000000000000000000 )
b1111111111111111111110011010111000000000000000000000000000000000 *
b1111111111111111111110011010111000000000000000000000000000000000 +
b100110101000000000000000000000000000000000 ,
b1001101 r"
#1580000
0&
#1590000
1&
b0 )
b0 *
b0 +
b0 ,
b1001110 r"
#1600000
0&
#1610000
1&
b1111111111111111111110011010111000000000000000000000000000000000 )
b100110101000000000000000000000000000000000 *
b1111101000000000000000000000000000000000000 +
b100110101000000000000000000000000000000000 ,
b1001111 r"
#1620000
0&
#1630000
1&
b0 )
b0 *
b0 +
b0 ,
b1010000 r"
#1640000
0&
#1650000
1&
b1111101000000000000000000000000000000000000 )
b100110101000000000000000000000000000000000 *
b1111111111111111111110011010111000000000000000000000000000000000 +
b1111111111111111111110011010111000000000000000000000000000000000 ,
b1010001 r"
#1660000
0&
#1670000
1&
b0 )
b0 *
b0 +
b0 ,
b1010010 r"
#1680000
0&
#1690000
1&
b1111111111111111111110011010111000000000000000000000000000000000 )
b1111111111111111111110011010111000000000000000000000000000000000 *
b100110101000000000000000000000000000000000 +
b1111101000000000000000000000000000000000000 ,
b1010011 r"
#1700000
0&
#1710000
1&
b0 )
b0 *
b0 +
b0 ,
b1010100 r"
#1720000
0&
#1730000
1&
b100110101000000000000000000000000000000000 )
b1111101000000000000000000000000000000000000 *
b100110101000000000000000000000000000000000 +
b1111111111111111111110011010111000000000000000000000000000000000 ,
b1010101 r"
#1740000
0&
#1750000
1&
b0 )
b0 *
b0 +
b0 ,
b1010110 r"
#1760000
0&
#1770000
1&
b100110101000000000000000000000000000000000 )
b1111111111111111111110011010111000000000000000000000000000000000 *
b1111111111111111111110011010111000000000000000000000000000000000 +
b100110101000000000000000000000000000000000 ,
b1010111 r"
#1780000
0&
#1790000
1&
b0 )
b0 *
b0 +
b0 ,
b1011000 r"
#1800000
0&
#1810000
1&
b1111111111111111111110011010111000000000000000000000000000000000 )
b100110101000000000000000000000000000000000 *
b1111101000000000000000000000000000000000000 +
b100110101000000000000000000000000000000000 ,
b1011001 r"
#1820000
0&
#1830000
1&
b0 )
b0 *
b0 +
b0 ,
b1011010 r"
#1840000
0&
#1850000
1&
b1111101000000000000000000000000000000000000 )
b100110101000000000000000000000000000000000 *
b1111111111111111111110011010111000000000000000000000000000000000 +
b1111111111111111111110011010111000000000000000000000000000000000 ,
b1011011 r"
#1860000
0&
#1870000
1&
b0 )
b0 *
b0 +
b0 ,
b1011100 r"
#1880000
0&
#1890000
1&
b1111111111111111111110011010111000000000000000000000000000000000 )
b1111111111111111111110011010111000000000000000000000000000000000 *
b100110101000000000000000000000000000000000 +
b1111101000000000000000000000000000000000000 ,
b1011101 r"
#1900000
0&
#1910000
1&
b0 )
b0 *
b0 +
b0 ,
b1011110 r"
#1920000
0&
#1930000
1&
b100110101000000000000000000000000000000000 )
b1111101000000000000000000000000000000000000 *
b100110101000000000000000000000000000000000 +
b1111111111111111111110011010111000000000000000000000000000000000 ,
b1011111 r"
#1940000
0&
#1950000
1&
b0 )
b0 *
b0 +
b0 ,
b1100000 r"
#1960000
0&
#1970000
1&
b100110101000000000000000000000000000000000 )
b1111111111111111111110011010111000000000000000000000000000000000 *
b1111111111111111111110011010111000000000000000000000000000000000 +
b100110101000000000000000000000000000000000 ,
b1100001 r"
#1980000
0&
#1990000
1&
b0 )
b0 *
b0 +
b0 ,
b1100010 r"
#2000000
0&
#2010000
1&
b1111111111111111111110011010111000000000000000000000000000000000 )
b100110101000000000000000000000000000000000 *
b1111101000000000000000000000000000000000000 +
b100110101000000000000000000000000000000000 ,
b1100011 r"
#2020000
0&
#2030000
1&
b0 )
b0 *
b0 +
b0 ,
b1100100 r"
#2040000
0&
#2050000
1&
b1111101000000000000000000000000000000000000 )
b100110101000000000000000000000000000000000 *
b1111111111111111111110011010111000000000000000000000000000000000 +
b1111111111111111111110011010111000000000000000000000000000000000 ,
b1100101 r"
#2060000
0&
#2070000
1&
b0 )
b0 *
b0 +
b0 ,
b1100110 r"
#2080000
0&
#2090000
1&
b1111111111111111111110011010111000000000000000000000000000000000 )
b1111111111111111111110011010111000000000000000000000000000000000 *
b100110101000000000000000000000000000000000 +
b1111101000000000000000000000000000000000000 ,
b1100111 r"
#2100000
0&
#2110000
1&
b0 )
b0 *
b0 +
b0 ,
b1101000 r"
#2120000
0&
